M48
; DRILL file {KiCad (5.1.10)-1} date 08/01/21 21:28:59
; FORMAT={-:-/ absolute / inch / decimal}
; #@! TF.CreationDate,2021-08-01T21:28:59-04:00
; #@! TF.GenerationSoftware,Kicad,Pcbnew,(5.1.10)-1
; #@! TF.FileFunction,Plated,1,2,PTH
FMAT,2
INCH
T1C0.0157
T2C0.0276
T3C0.0315
T4C0.0362
T5C0.0394
T6C0.0689
T7C0.0917
%
G90
G05
T1
X4.9932Y-2.6142
X5.3052Y-2.5065
X5.4201Y-2.5231
X5.4689Y-2.4934
X6.0302Y-2.7235
T2
X6.05Y-2.4
T3
X9.2Y-2.75
X9.2984Y-2.75
T4
X8.65Y-2.3713
X8.65Y-2.45
X8.7484Y-2.3713
X8.7484Y-2.45
T5
X3.15Y-2.45
X3.15Y-3.05
X3.25Y-2.45
X3.25Y-3.05
X3.35Y-2.45
X3.35Y-3.05
X3.45Y-2.45
X3.45Y-3.05
X3.55Y-2.45
X3.55Y-3.05
X3.65Y-2.45
X3.65Y-3.05
X3.75Y-2.45
X3.75Y-3.05
X3.85Y-2.45
X3.85Y-3.05
X3.95Y-2.45
X3.95Y-3.05
X4.05Y-2.45
X4.05Y-3.05
X4.15Y-2.45
X4.15Y-3.05
X4.25Y-2.45
X4.25Y-3.05
X4.3Y-2.0
X4.35Y-2.45
X4.35Y-3.05
X4.4Y-2.0
X4.45Y-2.45
X4.45Y-3.05
X4.5Y-2.0
X4.55Y-2.45
X4.55Y-3.05
X4.6Y-2.0
X4.65Y-2.45
X4.65Y-3.05
X4.7Y-2.0
X4.75Y-2.45
X4.75Y-3.05
X4.8Y-2.0
X4.85Y-2.45
X4.85Y-3.05
X4.9Y-2.0
X4.9Y-2.6
X4.9Y-2.7
X4.9Y-2.8
X4.9Y-2.9
X4.95Y-2.45
X4.95Y-3.05
X5.0Y-2.0
X5.05Y-2.45
X5.05Y-3.05
X5.1Y-2.0
X5.2Y-2.0
X5.3Y-2.0
X5.4Y-2.0
X5.4256Y-2.3087
X5.4258Y-2.4171
X5.4311Y-2.722
X5.4311Y-2.8598
X5.4311Y-2.9937
X5.5Y-2.0
X5.5256Y-2.3087
X5.5258Y-2.4171
X5.5311Y-2.722
X5.5311Y-2.8598
X5.5311Y-2.9937
X5.6Y-2.0
X5.6258Y-2.4171
X5.6311Y-2.722
X5.6311Y-2.8598
X5.6311Y-2.9937
X5.7Y-2.0
X5.8Y-2.0
X6.05Y-2.2
X6.25Y-3.1
X6.35Y-3.1
X6.45Y-3.1
X6.55Y-3.1
X6.65Y-3.1
X6.75Y-3.1
X6.85Y-3.1
X6.95Y-3.1
X7.05Y-3.1
X7.15Y-3.1
X7.25Y-3.1
X7.35Y-3.1
X7.45Y-3.1
X7.55Y-2.4
X7.55Y-2.5
X7.55Y-2.6
X7.55Y-2.7
X7.55Y-2.8
X7.55Y-3.1
X7.65Y-3.1
X7.75Y-3.1
X8.2Y-2.35
X8.2Y-2.45
X8.2Y-2.55
X8.2Y-2.65
T6
X9.05Y-3.15
X9.2626Y-3.15
T7
X8.4622Y-2.2646
X8.9362Y-2.2646
T0
M30
